// Jest Snapshot v1, https://goo.gl/fbAQLP

exports[`should render categories correctly 1`] = `
<Connect(MenuOptions)
  sublevels={
    Array [
      Object {
        "id": 1,
        "name": "Bebidas",
        "sublevels": Array [
          Object {
            "id": 1,
            "name": "Gaseosas",
            "sublevels": Array [
              Object {
                "id": 2,
                "name": "Con azúcar",
              },
              Object {
                "id": 3,
                "name": "Sin azúcar",
              },
            ],
          },
        ],
      },
      Object {
        "id": 2,
        "name": "Desayunos",
        "sublevels": Array [
          Object {
            "id": 4,
            "name": "Fake 1",
            "sublevels": Array [
              Object {
                "id": 5,
                "name": "Fake 2",
              },
              Object {
                "id": 6,
                "name": "Fake 3",
                "sublevels": Array [
                  Object {
                    "id": 7,
                    "name": "Fake 4",
                  },
                ],
              },
            ],
          },
        ],
      },
      Object {
        "id": 8,
        "name": "Almuerzos",
        "sublevels": Array [
          Object {
            "id": 9,
            "name": "Fake 5",
          },
          Object {
            "id": 10,
            "name": "Fake 6",
          },
        ],
      },
      Object {
        "id": 11,
        "name": "Vinos",
        "sublevels": Array [
          Object {
            "id": 12,
            "name": "Fake 8",
          },
          Object {
            "id": 13,
            "name": "Fake 9",
          },
        ],
      },
    ]
  }
/>
`;
