// Jest Snapshot v1, https://goo.gl/fbAQLP

exports[`should render ProductListItem correctly when product is in the cart 1`] = `
<tr>
  <td
    className="text-capitalize"
  >
    aute
    <p
      className="table__note"
    >
      No disponible
    </p>
  </td>
  <td>
    308
  </td>
  <td>
    $8,958
  </td>
  <td>
    <i
      aria-hidden="true"
      className="fa fa-cart-plus fa-2x text-success c-pointer"
      onClick={[Function]}
    />
  </td>
</tr>
`;

exports[`should render ProductListItem correctly when product is not in the cart 1`] = `
<tr>
  <td
    className="text-capitalize"
  >
    aute
    <p
      className="table__note"
    >
      No disponible
    </p>
  </td>
  <td>
    308
  </td>
  <td>
    $8,958
  </td>
  <td>
    <i
      aria-hidden="true"
      className="fa fa-cart-plus fa-2x text-secondary c-pointer"
      onClick={[Function]}
    />
  </td>
</tr>
`;
