// Jest Snapshot v1, https://goo.gl/fbAQLP

exports[`should render ProductListFilters correctly 1`] = `
<Form
  tag="form"
>
  <FormGroup
    tag="div"
  >
    <Label
      for="startPrice"
      tag="label"
      widths={
        Array [
          "xs",
          "sm",
          "md",
          "lg",
          "xl",
        ]
      }
    >
      Precio inicial:
    </Label>
    <Input
      name="startPrice"
      onChange={[Function]}
      placeholder="1200.00"
      tag="p"
      type="text"
      value=""
    />
  </FormGroup>
  <FormGroup
    tag="div"
  >
    <Label
      for="endPrice"
      tag="label"
      widths={
        Array [
          "xs",
          "sm",
          "md",
          "lg",
          "xl",
        ]
      }
    >
      Precio final:
    </Label>
    <Input
      name="endPrice"
      onChange={[Function]}
      placeholder="18000.00"
      tag="p"
      type="text"
      value=""
    />
  </FormGroup>
  <FormGroup
    tag="div"
  >
    <Label
      for="quantity"
      tag="label"
      widths={
        Array [
          "xs",
          "sm",
          "md",
          "lg",
          "xl",
        ]
      }
    >
      Cantidad:
    </Label>
    <Input
      name="quantity"
      onChange={[Function]}
      placeholder="15"
      tag="p"
      type="text"
      value=""
    />
  </FormGroup>
  <FormGroup
    check={true}
    tag="div"
  >
    <Label
      check={true}
      tag="label"
      widths={
        Array [
          "xs",
          "sm",
          "md",
          "lg",
          "xl",
        ]
      }
    >
      <Input
        checked={true}
        onChange={[Function]}
        tag="p"
        type="checkbox"
      />
       
      Disponibilidad
    </Label>
  </FormGroup>
  <FormGroup
    tag="div"
  >
    <Label
      for="sortBy"
      tag="label"
      widths={
        Array [
          "xs",
          "sm",
          "md",
          "lg",
          "xl",
        ]
      }
    >
      Ordenar por:
    </Label>
    <Input
      name="sortBy"
      onChange={[Function]}
      tag="p"
      type="select"
      value="price"
    >
      <option
        value="price"
      >
        Price
      </option>
      <option
        value="available"
      >
        Available
      </option>
      <option
        value="quantity"
      >
        Quantity
      </option>
    </Input>
  </FormGroup>
</Form>
`;
