// Jest Snapshot v1, https://goo.gl/fbAQLP

exports[`should render SuccessModal correctly 1`] = `
<div>
  <Modal
    autoFocus={true}
    backdrop={true}
    backdropTransition={
      Object {
        "mountOnEnter": true,
        "timeout": 150,
      }
    }
    fade={true}
    isOpen={true}
    keyboard={true}
    modalTransition={
      Object {
        "timeout": 300,
      }
    }
    onClosed={[Function]}
    onOpened={[Function]}
    role="dialog"
    toggle={[Function]}
    zIndex={1050}
  >
    <ModalHeader
      className="bg-success text-white"
      closeAriaLabel="Close"
      tag="h4"
      toggle={[Function]}
      wrapTag="div"
    >
      Compra exitosa
    </ModalHeader>
    <ModalBody
      tag="div"
    >
      <p>
        Gracias por comprar en 
        <strong>
          El Baratón
        </strong>
         y esperamos su pronto regreso.
      </p>
    </ModalBody>
    <ModalFooter
      tag="div"
    >
      <Button
        color="success"
        onClick={[Function]}
        tag="button"
      >
        Aceptar
      </Button>
       
    </ModalFooter>
  </Modal>
</div>
`;
